[gd_scene load_steps=2 format=2]

[ext_resource path="res://scripts/HUD.gd" type="Script" id=1]

[node name="HUD" type="Control"]
anchor_right = 1.0
anchor_bottom = 1.0
script = ExtResource( 1 )

[node name="Red_Target_Circles" type="Control" parent="."]
margin_right = 40.0
margin_bottom = 40.0

[node name="Red_Target_Arrows" type="Control" parent="."]
margin_right = 40.0
margin_bottom = 40.0
