[gd_scene load_steps=3 format=2]

[ext_resource path="res://materials/sun_mat.tres" type="Material" id=1]

[sub_resource type="SphereMesh" id=1]

[node name="SunLight" type="DirectionalLight"]
transform = Transform( 1, 0, 0, 0, 1, 0, 0, 0, 1, -66.7146, 61.7814, -59.6745 )
layers = 2
light_energy = 0.0
light_indirect_energy = 0.0
shadow_bias = 2.0

[node name="MeshInstance" type="MeshInstance" parent="."]
transform = Transform( 100, 0, 0, 0, 100, 0, 0, 0, 100, 0, 0, 0 )
visible = false
layers = 2
mesh = SubResource( 1 )
material/0 = ExtResource( 1 )
