[gd_resource type="DynamicFont" load_steps=2 format=2]

[ext_resource path="res://fonts/Begok v15_2015___free.ttf" type="DynamicFontData" id=1]

[resource]
resource_name = "begokv15"
font_data = ExtResource( 1 )
