[gd_resource type="StyleBoxFlat" format=2]

[resource]
bg_color = Color( 0.223529, 0.223529, 0.223529, 0.329412 )
border_width_left = 4
border_width_top = 4
border_width_right = 4
border_width_bottom = 4
border_color = Color( 0, 0.701961, 0.811765, 0.380392 )
corner_radius_top_left = 25
corner_radius_top_right = 25
corner_radius_bottom_right = 25
corner_radius_bottom_left = 25
